{
    "VlocityDataPackIds": {
    },
    "activate": true,
    "addSourceKeys": false,
    "addedToExportBuildFile": [
    ],
    "allDataSummary": {
    },
    "allParents": [
    ],
    "alreadyErroredIdsByType": {
    },
    "alreadyExportedIdsByType": {
    },
    "alreadyExportedKeys": [
    ],
    "alreadyRetriedIdsByType": {
    },
    "buildFile": "AllDataPacks.json",
    "compileOnBuild": true,
    "continueAfterError": true,
    "currentErrors": {
    },
    "currentStatus": {
    },
    "dataPackDisplayLabels": {
    },
    "dataPackKeyToPrimarySourceKey": {
    },
    "defaultMaxParallel": 10,
    "delete": true,
    "diffStatus": {
    },
    "errors": [
    ],
    "expansionPath": ".",
    "exportPacksMaxSize": 10,
    "fullManifest": {
    },
    "generatedKeysToNames": {
    },
    "hasError": true,
    "ignoreAllErrors": false,
    "job": "Example.yaml",
    "jobAction": "${action}",
    "jobName": "Example.yaml",
    "keysToDirectories": {
    },
    "logName": "Example-yaml-2018-08-07T07-17-24-707Z-action.yaml",
    "manifestFound": {
    },
    "manifestOnly": false,
    "maxDepth": -1,
    "maximumDeployCount": 1000,
    "message": "Command not found: ${action}",
    "originalAction": "${action}",
    "pendingFromManifest": {
    },
    "postDeployResults": [
    ],
    "postStepApex": {
        "Deploy": {
            "Product2": "EPCProductJSONUpdate.cls"
        }
    },
    "preDeployDataSummary": [
    ],
    "preStepApex": {
        "Deploy": {
            "VlocityUILayout": "DeactivateTemplatesAndLayouts.cls",
            "VlocityUITemplate": "DeactivateTemplatesAndLayouts.cls"
        }
    },
    "projectPath": "./vlocity_build_new",
    "propertyfile": "build_source.properties",
    "queries": [
        {
            "VlocityDataPackType": "DataRaptor",
            "query": "Select Id from %vlocity_namespace%__DRBundle__c where Name = 'DataRaptor Migration' LIMIT 1"
        }
    ],
    "records": [
    ],
    "refreshVlocityBase": [
    ],
    "sourceKeyToRecordId": {
    },
    "sourceKeysByParent": {
    },
    "startTime": 1533626244707,
    "strict": false,
    "supportForceDeploy": true,
    "supportHeadersOnly": true,
    "supportParallel": true,
    "useAllRelationships": false,
    "vlocityKeysToNewNamesMap": {
    },
    "vlocityRecordSourceKeyMap": {
    }
}