{
    "AccountContractDetails": {
        "ContractCount": null,
        "Contracts": null,
        "MessagingContract": null
    },
    "ContextId": null,
    "FetchRelatedContractLineItem": {
        "LineItemCount": null,
        "MessagingContractLine": null,
        "MessagingNoContractLine": null,
        "NumberOfLineItems": null,
        "SelectableContractLineItem": null
    },
    "InsertMeterReadings": {
    },
    "MoveOutDetails": {
        "MoveOutDate": null,
        "SelectReason": null
    },
    "TerminateAgreement": {
    },
    "timeStamp": null,
    "userId": null,
    "userName": null,
    "userProfile": null,
    "userTimeZone": null,
    "vlcPersistentComponent": {
    },
    "vlcTimeTracking": {
        "AccountContractDetails": null,
        "DRGetContractLineItemForContract": null,
        "DRGetContractsForAccount": null,
        "FetchRelatedContractLineItem": null,
        "InsertMeterReadings": null,
        "MoveOutDetails": null,
        "SetContractLineId": null,
        "TerminateAgreement": null,
        "UpdateContract": null
    }
}