{
    "Asset Information": {
        "assetAccountName": "Global Media",
        "assetActivationDate": "2016-03-10T08:00:00.000Z",
        "assetEndDate": "2017-03-10T08:00:00.000Z",
        "assetName": "Test Asset",
        "assetPrice": 29,
        "assetQuantity": 1,
        "assetSerialNumber": "GO1245H12",
        "birthDate": null,
        "contact": "00336000005pBSpAAM",
        "email": null
    },
    "Assetname": "Test Asset",
    "ContextId": "02i360000009Jje",
    "Serialnumber": "GO1245H12",
    "account": {
        "Name": "Global Media",
        "accountName": null,
        "accountStatus": "Installed",
        "acctNumber": "CMT000123",
        "birthDate": null,
        "contact": "00336000005pBSpAAM",
        "email": null
    },
    "acctId": "00136000008NUmqAAG",
    "acctType": "Business",
    "assetAccountId": "00136000008NUmqAAG",
    "assetContactId": "00336000005ZgUgAAK",
    "assetContactName": "Global Contact",
    "assetId": "02i360000009JjeAAE",
    "assetProductId": "01t36000000iJXsAAM",
    "assetPurchaseDate": "2016-03-09",
    "billingPostCode": "L4B 1Y3",
    "billingState": "Ontario",
    "billingStreet": "150 Chestnut Street",
    "case": {
        "description": "fdfd",
        "origin": null,
        "reason": null,
        "status": null,
        "subject": null,
        "type": null
    },
    "contextType": "Asset",
    "installdate": "2016-03-10",
    "phone": "(905) 555-1212",
    "timeStamp": "2016-03-20T23:36:49.932Z",
    "userName": "processlibrary@vlocity.com",
    "userProfile": "System Administrator",
    "vlcPersistentComponent": {
    },
    "vlcTimeTracking": {
        "Asset Information": 5147,
        "AssetToCase": 989
    }
}