{
    "Authentication": {
        "AlternateId1": null,
        "AlternateId2": null,
        "AlternateType1": null,
        "AlternateType2": null,
        "Customerclass": null,
        "SSN": null,
        "Tin": null
    },
    "Authentification": {
        "AlternateId1": "8674354445",
        "AlternateId2": "MH45678344",
        "AlternateType1": "Collection Agency",
        "AlternateType2": "Naturalization ID Number",
        "Customerclass": null,
        "SSN": null,
        "Tin": "00-6748945"
    },
    "ContextId": "003m000000uSfqD",
    "id": "a2Fm0000000bpOiEAI",
    "layout": "lightning",
    "timeStamp": "2018-06-22T06:02:08.495Z",
    "userCurrencyCode": "USD",
    "userId": "005m0000002yCkAAAU",
    "userName": "manisha.naik@pge.com.cc2020.dev",
    "userProfile": "System Administrator",
    "userTimeZone": -420,
    "vlcPersistentComponent": {
    },
    "vlcTimeTracking": {
        "EditCustomerAuthenticationDataRaptorExtract": 6000,
        "EditCustomerAuthenticationScriptConstant": 151,
        "OmniScriptSessionToken": "3f0d150f-be26-40ac-9826-d6813cb3580d"
    }
}