{
    "ResponseActionStatus": true,
    "getRestData": {
        "response": {
            "error": {
                "description": "No cities match your search query",
                "type": "querynotfound"
            },
            "features": {
                "conditions": 1
            },
            "termsofService": "http://www.wunderground.com/weather/api/d/terms.html",
            "version": "0.1"
        }
    },
    "getRestDataInfo": {
        "Access-Control-Allow-Credentials": "true",
        "Access-Control-Allow-Origin": "*",
        "Cache-Control": "max-age=0, no-cache",
        "Connection": "keep-alive",
        "Content-Length": "255",
        "Content-Type": "application/json; charset=UTF-8",
        "Date": "Fri, 15 Jun 2018 05:58:13 GMT",
        "Expires": "Fri, 15 Jun 2018 05:58:13 GMT",
        "Last-Modified": "Fri, 15 Jun 2018 05:58:13 GMT",
        "Pragma": "no-cache",
        "Server": "Apache/2.2.15 (CentOS)",
        "X-Cache": "MISS from proxy-phx.net.salesforce.com",
        "X-Cache-Lookup": "MISS from proxy-phx.net.salesforce.com:8080",
        "X-Cacheable": "YES",
        "X-CreationTime": "0.009",
        "X-Varnish": "3878915479",
        "status": "OK",
        "statusCode": 200
    },
    "getRestDataStatus": true,
    "options": {
    },
    "response": {
    },
    "restAPIScriptConstant": {
        "CallerZipCode": 411021,
        "WeaxAPIKey": "01a5a6324bcce27b"
    },
    "restAPIScriptConstantStatus": true
}