{
    "ContactId": "003m000000uSfpy",
    "ContextId": "",
    "PersonInformation": {
        "MailingDate": null,
        "UseMailingAddress": false,
        "accountId": "001m000000crJx8AAE Global Media-Non-Residential",
        "literatureSelectionBlock": {
            "literatureCategory": null,
            "literatureType": null,
            "quantity": null
        },
        "mailingAddress": null,
        "personId": "003m000000uSfpyAAC John S Amos Jr-Home Phone-Primary:(905) 555-1212"
    },
    "id": "a2Fm0000000KumoEAC",
    "layout": "lightning",
    "timeStamp": "2018-05-28T10:04:50.745Z",
    "userCurrencyCode": "USD",
    "userId": "005m0000002yCkAAAU",
    "userName": "manisha.naik@pge.com.cc2020.dev",
    "userProfile": "System Administrator",
    "userTimeZone": -420,
    "vlcPersistentComponent": {
    },
    "vlcTimeTracking": {
        "DataRaptorExtractAction": 4061,
        "OmniScriptSessionToken": "9b14cff6-34e4-4943-b8a3-9320077f53af",
        "accountContactScriptConstant": 133
    }
}