[
    {
        "%vlocity_namespace%__DomainObjectAPIName__c": "json",
        "%vlocity_namespace%__DomainObjectCreationOrder__c": 0,
        "%vlocity_namespace%__DomainObjectFieldAPIName__c": "Account",
        "%vlocity_namespace%__FilterGroup__c": 0,
        "%vlocity_namespace%__FilterOperator__c": "=",
        "%vlocity_namespace%__FilterValue__c": "Id",
        "%vlocity_namespace%__InterfaceFieldAPIName__c": "Id",
        "%vlocity_namespace%__InterfaceObjectLookupOrder__c": 1,
        "%vlocity_namespace%__InterfaceObjectName__c": "Account",
        "%vlocity_namespace%__IsDisabled__c": false,
        "%vlocity_namespace%__IsRequiredForUpsert__c": false,
        "%vlocity_namespace%__MapId__c": "ViewUpdateAccountInformationCustom4279",
        "%vlocity_namespace%__UpsertKey__c": false,
        "Name": "DRPrefillAccount",
        "VlocityDataPackType": "SObject",
        "VlocityRecordSObjectType": "%vlocity_namespace%__DRMapItem__c"
    },
    {
        "%vlocity_namespace%__DomainObjectAPIName__c": "json",
        "%vlocity_namespace%__DomainObjectCreationOrder__c": 1,
        "%vlocity_namespace%__DomainObjectFieldAPIName__c": "ViewAccount:editAccountBlock:AccountName1",
        "%vlocity_namespace%__InterfaceFieldAPIName__c": "Account:Name",
        "%vlocity_namespace%__IsDisabled__c": false,
        "%vlocity_namespace%__IsRequiredForUpsert__c": false,
        "%vlocity_namespace%__MapId__c": "DRPrefillAccountCustom4439",
        "%vlocity_namespace%__UpsertKey__c": false,
        "Name": "DRPrefillAccount",
        "VlocityDataPackType": "SObject",
        "VlocityRecordSObjectType": "%vlocity_namespace%__DRMapItem__c"
    },
    {
        "%vlocity_namespace%__DomainObjectAPIName__c": "json",
        "%vlocity_namespace%__DomainObjectCreationOrder__c": 1,
        "%vlocity_namespace%__DomainObjectFieldAPIName__c": "ViewAccount:editAccountBlock:BillCycle1",
        "%vlocity_namespace%__InterfaceFieldAPIName__c": "Account:Bill_Cycle__c",
        "%vlocity_namespace%__IsDisabled__c": false,
        "%vlocity_namespace%__IsRequiredForUpsert__c": false,
        "%vlocity_namespace%__MapId__c": "DRPrefillAccountCustom5886",
        "%vlocity_namespace%__UpsertKey__c": false,
        "Name": "DRPrefillAccount",
        "VlocityDataPackType": "SObject",
        "VlocityRecordSObjectType": "%vlocity_namespace%__DRMapItem__c"
    },
    {
        "%vlocity_namespace%__DomainObjectAPIName__c": "json",
        "%vlocity_namespace%__DomainObjectCreationOrder__c": 1,
        "%vlocity_namespace%__DomainObjectFieldAPIName__c": "ViewAccount:editAccountBlock:CISDevision1",
        "%vlocity_namespace%__InterfaceFieldAPIName__c": "Account:CIS_Division__c",
        "%vlocity_namespace%__IsDisabled__c": false,
        "%vlocity_namespace%__IsRequiredForUpsert__c": false,
        "%vlocity_namespace%__MapId__c": "DRPrefillAccountCustom3010",
        "%vlocity_namespace%__UpsertKey__c": false,
        "Name": "DRPrefillAccount",
        "VlocityDataPackType": "SObject",
        "VlocityRecordSObjectType": "%vlocity_namespace%__DRMapItem__c"
    },
    {
        "%vlocity_namespace%__DomainObjectAPIName__c": "json",
        "%vlocity_namespace%__DomainObjectCreationOrder__c": 1,
        "%vlocity_namespace%__DomainObjectFieldAPIName__c": "ViewAccount:editAccountBlock:CustomerClass1",
        "%vlocity_namespace%__InterfaceFieldAPIName__c": "Account:Customer_Class__c",
        "%vlocity_namespace%__IsDisabled__c": false,
        "%vlocity_namespace%__IsRequiredForUpsert__c": false,
        "%vlocity_namespace%__MapId__c": "DRPrefillAccountCustom2362",
        "%vlocity_namespace%__UpsertKey__c": false,
        "Name": "DRPrefillAccount",
        "VlocityDataPackType": "SObject",
        "VlocityRecordSObjectType": "%vlocity_namespace%__DRMapItem__c"
    },
    {
        "%vlocity_namespace%__DomainObjectAPIName__c": "json",
        "%vlocity_namespace%__DomainObjectCreationOrder__c": 1,
        "%vlocity_namespace%__DomainObjectFieldAPIName__c": "ViewAccount:editAccountBlock:ManagementGroup1",
        "%vlocity_namespace%__InterfaceFieldAPIName__c": "Account:Account_Management_Group__c",
        "%vlocity_namespace%__IsDisabled__c": false,
        "%vlocity_namespace%__IsRequiredForUpsert__c": false,
        "%vlocity_namespace%__MapId__c": "DRPrefillAccountCustom5109",
        "%vlocity_namespace%__UpsertKey__c": false,
        "Name": "DRPrefillAccount",
        "VlocityDataPackType": "SObject",
        "VlocityRecordSObjectType": "%vlocity_namespace%__DRMapItem__c"
    },
    {
        "%vlocity_namespace%__DomainObjectAPIName__c": "json",
        "%vlocity_namespace%__DomainObjectCreationOrder__c": 1,
        "%vlocity_namespace%__DomainObjectFieldAPIName__c": "ViewAccount:editAccountBlock:ProtectBillCycle1",
        "%vlocity_namespace%__InterfaceFieldAPIName__c": "Account:Protect_Bill_Cycle__c",
        "%vlocity_namespace%__IsDisabled__c": false,
        "%vlocity_namespace%__IsRequiredForUpsert__c": false,
        "%vlocity_namespace%__MapId__c": "DRPrefillAccountCustom573",
        "%vlocity_namespace%__UpsertKey__c": false,
        "Name": "DRPrefillAccount",
        "VlocityDataPackType": "SObject",
        "VlocityRecordSObjectType": "%vlocity_namespace%__DRMapItem__c"
    },
    {
        "%vlocity_namespace%__DomainObjectAPIName__c": "json",
        "%vlocity_namespace%__DomainObjectCreationOrder__c": 1,
        "%vlocity_namespace%__DomainObjectFieldAPIName__c": "ViewAccount:editAccountBlock:ShippingAddress1",
        "%vlocity_namespace%__InterfaceFieldAPIName__c": "Account:ShippingAddress",
        "%vlocity_namespace%__IsDisabled__c": false,
        "%vlocity_namespace%__IsRequiredForUpsert__c": false,
        "%vlocity_namespace%__MapId__c": "DRPrefillAccountCustom8501",
        "%vlocity_namespace%__UpsertKey__c": false,
        "Name": "DRPrefillAccount",
        "VlocityDataPackType": "SObject",
        "VlocityRecordSObjectType": "%vlocity_namespace%__DRMapItem__c"
    },
    {
        "%vlocity_namespace%__DomainObjectAPIName__c": "json",
        "%vlocity_namespace%__DomainObjectCreationOrder__c": 1,
        "%vlocity_namespace%__DomainObjectFieldAPIName__c": "ViewAccount:editAccountBlock:setupDate1",
        "%vlocity_namespace%__InterfaceFieldAPIName__c": "Account:Setup_Date__c",
        "%vlocity_namespace%__IsDisabled__c": false,
        "%vlocity_namespace%__IsRequiredForUpsert__c": false,
        "%vlocity_namespace%__MapId__c": "DRPrefillAccountCustom8633",
        "%vlocity_namespace%__UpsertKey__c": false,
        "Name": "DRPrefillAccount",
        "VlocityDataPackType": "SObject",
        "VlocityRecordSObjectType": "%vlocity_namespace%__DRMapItem__c"
    },
    {
        "%vlocity_namespace%__DomainObjectAPIName__c": "json",
        "%vlocity_namespace%__DomainObjectCreationOrder__c": 1,
        "%vlocity_namespace%__DomainObjectFieldAPIName__c": "ViewAccount:viewAccountBlock:AccountName",
        "%vlocity_namespace%__InterfaceFieldAPIName__c": "Account:Name",
        "%vlocity_namespace%__IsDisabled__c": false,
        "%vlocity_namespace%__IsRequiredForUpsert__c": false,
        "%vlocity_namespace%__MapId__c": "DRPrefillAccountCustom4981",
        "%vlocity_namespace%__UpsertKey__c": false,
        "Name": "DRPrefillAccount",
        "VlocityDataPackType": "SObject",
        "VlocityRecordSObjectType": "%vlocity_namespace%__DRMapItem__c"
    },
    {
        "%vlocity_namespace%__DomainObjectAPIName__c": "json",
        "%vlocity_namespace%__DomainObjectCreationOrder__c": 1,
        "%vlocity_namespace%__DomainObjectFieldAPIName__c": "ViewAccount:viewAccountBlock:BillCycle",
        "%vlocity_namespace%__InterfaceFieldAPIName__c": "Account:Bill_Cycle__c",
        "%vlocity_namespace%__IsDisabled__c": false,
        "%vlocity_namespace%__IsRequiredForUpsert__c": false,
        "%vlocity_namespace%__MapId__c": "DRPrefillAccountCustom3789",
        "%vlocity_namespace%__UpsertKey__c": false,
        "Name": "DRPrefillAccount",
        "VlocityDataPackType": "SObject",
        "VlocityRecordSObjectType": "%vlocity_namespace%__DRMapItem__c"
    },
    {
        "%vlocity_namespace%__DomainObjectAPIName__c": "json",
        "%vlocity_namespace%__DomainObjectCreationOrder__c": 1,
        "%vlocity_namespace%__DomainObjectFieldAPIName__c": "ViewAccount:viewAccountBlock:CISDevision",
        "%vlocity_namespace%__InterfaceFieldAPIName__c": "Account:CIS_Division__c",
        "%vlocity_namespace%__IsDisabled__c": false,
        "%vlocity_namespace%__IsRequiredForUpsert__c": false,
        "%vlocity_namespace%__MapId__c": "DRPrefillAccountCustom2679",
        "%vlocity_namespace%__UpsertKey__c": false,
        "Name": "DRPrefillAccount",
        "VlocityDataPackType": "SObject",
        "VlocityRecordSObjectType": "%vlocity_namespace%__DRMapItem__c"
    },
    {
        "%vlocity_namespace%__DomainObjectAPIName__c": "json",
        "%vlocity_namespace%__DomainObjectCreationOrder__c": 1,
        "%vlocity_namespace%__DomainObjectFieldAPIName__c": "ViewAccount:viewAccountBlock:CustomerClass",
        "%vlocity_namespace%__InterfaceFieldAPIName__c": "Account:Customer_Class__c",
        "%vlocity_namespace%__IsDisabled__c": false,
        "%vlocity_namespace%__IsRequiredForUpsert__c": false,
        "%vlocity_namespace%__MapId__c": "DRPrefillAccountCustom5027",
        "%vlocity_namespace%__UpsertKey__c": false,
        "Name": "DRPrefillAccount",
        "VlocityDataPackType": "SObject",
        "VlocityRecordSObjectType": "%vlocity_namespace%__DRMapItem__c"
    },
    {
        "%vlocity_namespace%__DomainObjectAPIName__c": "json",
        "%vlocity_namespace%__DomainObjectCreationOrder__c": 1,
        "%vlocity_namespace%__DomainObjectFieldAPIName__c": "ViewAccount:viewAccountBlock:ManagementGroup",
        "%vlocity_namespace%__InterfaceFieldAPIName__c": "Account:Account_Management_Group__c",
        "%vlocity_namespace%__IsDisabled__c": false,
        "%vlocity_namespace%__IsRequiredForUpsert__c": false,
        "%vlocity_namespace%__MapId__c": "DRPrefillAccountCustom6256",
        "%vlocity_namespace%__UpsertKey__c": false,
        "Name": "DRPrefillAccount",
        "VlocityDataPackType": "SObject",
        "VlocityRecordSObjectType": "%vlocity_namespace%__DRMapItem__c"
    },
    {
        "%vlocity_namespace%__DomainObjectAPIName__c": "json",
        "%vlocity_namespace%__DomainObjectCreationOrder__c": 1,
        "%vlocity_namespace%__DomainObjectFieldAPIName__c": "ViewAccount:viewAccountBlock:ProtectBillCycle",
        "%vlocity_namespace%__InterfaceFieldAPIName__c": "Account:Protect_Bill_Cycle__c",
        "%vlocity_namespace%__IsDisabled__c": false,
        "%vlocity_namespace%__IsRequiredForUpsert__c": false,
        "%vlocity_namespace%__MapId__c": "DRPrefillAccountCustom7396",
        "%vlocity_namespace%__UpsertKey__c": false,
        "Name": "DRPrefillAccount",
        "VlocityDataPackType": "SObject",
        "VlocityRecordSObjectType": "%vlocity_namespace%__DRMapItem__c"
    },
    {
        "%vlocity_namespace%__DomainObjectAPIName__c": "json",
        "%vlocity_namespace%__DomainObjectCreationOrder__c": 1,
        "%vlocity_namespace%__DomainObjectFieldAPIName__c": "ViewAccount:viewAccountBlock:ShippingAddress",
        "%vlocity_namespace%__InterfaceFieldAPIName__c": "Account:ShippingAddress",
        "%vlocity_namespace%__IsDisabled__c": false,
        "%vlocity_namespace%__IsRequiredForUpsert__c": false,
        "%vlocity_namespace%__MapId__c": "DRPrefillAccountCustom3059",
        "%vlocity_namespace%__UpsertKey__c": false,
        "Name": "DRPrefillAccount",
        "VlocityDataPackType": "SObject",
        "VlocityRecordSObjectType": "%vlocity_namespace%__DRMapItem__c"
    },
    {
        "%vlocity_namespace%__DomainObjectAPIName__c": "json",
        "%vlocity_namespace%__DomainObjectCreationOrder__c": 1,
        "%vlocity_namespace%__DomainObjectFieldAPIName__c": "ViewAccount:viewAccountBlock:setupDate",
        "%vlocity_namespace%__InterfaceFieldAPIName__c": "Account:Setup_Date__c",
        "%vlocity_namespace%__IsDisabled__c": false,
        "%vlocity_namespace%__IsRequiredForUpsert__c": false,
        "%vlocity_namespace%__MapId__c": "DRPrefillAccountCustom5169",
        "%vlocity_namespace%__UpsertKey__c": false,
        "Name": "DRPrefillAccount",
        "VlocityDataPackType": "SObject",
        "VlocityRecordSObjectType": "%vlocity_namespace%__DRMapItem__c"
    },
    {
        "%vlocity_namespace%__DomainObjectAPIName__c": "json",
        "%vlocity_namespace%__DomainObjectCreationOrder__c": 1,
        "%vlocity_namespace%__DomainObjectFieldAPIName__c": "ViewAccount:viewAccountDetails1:AccessGroup1",
        "%vlocity_namespace%__InterfaceFieldAPIName__c": "Account:Access_Group__c",
        "%vlocity_namespace%__IsDisabled__c": false,
        "%vlocity_namespace%__IsRequiredForUpsert__c": false,
        "%vlocity_namespace%__MapId__c": "DRPrefillAccountCustom9946",
        "%vlocity_namespace%__UpsertKey__c": false,
        "Name": "DRPrefillAccount",
        "VlocityDataPackType": "SObject",
        "VlocityRecordSObjectType": "%vlocity_namespace%__DRMapItem__c"
    },
    {
        "%vlocity_namespace%__DomainObjectAPIName__c": "json",
        "%vlocity_namespace%__DomainObjectCreationOrder__c": 1,
        "%vlocity_namespace%__DomainObjectFieldAPIName__c": "ViewAccount:viewAccountDetails1:BillAfterDate1",
        "%vlocity_namespace%__InterfaceFieldAPIName__c": "Account:Bill_After_Date__c",
        "%vlocity_namespace%__IsDisabled__c": false,
        "%vlocity_namespace%__IsRequiredForUpsert__c": false,
        "%vlocity_namespace%__MapId__c": "DRPrefillAccountCustom7845",
        "%vlocity_namespace%__UpsertKey__c": false,
        "Name": "DRPrefillAccount",
        "VlocityDataPackType": "SObject",
        "VlocityRecordSObjectType": "%vlocity_namespace%__DRMapItem__c"
    },
    {
        "%vlocity_namespace%__DomainObjectAPIName__c": "json",
        "%vlocity_namespace%__DomainObjectCreationOrder__c": 1,
        "%vlocity_namespace%__DomainObjectFieldAPIName__c": "ViewAccount:viewAccountDetails1:BillPrintIntercept1",
        "%vlocity_namespace%__InterfaceFieldAPIName__c": "Account:Bill_Print_Intercept__c",
        "%vlocity_namespace%__IsDisabled__c": false,
        "%vlocity_namespace%__IsRequiredForUpsert__c": false,
        "%vlocity_namespace%__MapId__c": "DRPrefillAccountCustom5271",
        "%vlocity_namespace%__UpsertKey__c": false,
        "Name": "DRPrefillAccount",
        "VlocityDataPackType": "SObject",
        "VlocityRecordSObjectType": "%vlocity_namespace%__DRMapItem__c"
    },
    {
        "%vlocity_namespace%__DomainObjectAPIName__c": "json",
        "%vlocity_namespace%__DomainObjectCreationOrder__c": 1,
        "%vlocity_namespace%__DomainObjectFieldAPIName__c": "ViewAccount:viewAccountDetails1:Currency Code1",
        "%vlocity_namespace%__InterfaceFieldAPIName__c": "Account:Currency_Code__c",
        "%vlocity_namespace%__IsDisabled__c": false,
        "%vlocity_namespace%__IsRequiredForUpsert__c": false,
        "%vlocity_namespace%__MapId__c": "DRPrefillAccountCustom4130",
        "%vlocity_namespace%__UpsertKey__c": false,
        "Name": "DRPrefillAccount",
        "VlocityDataPackType": "SObject",
        "VlocityRecordSObjectType": "%vlocity_namespace%__DRMapItem__c"
    },
    {
        "%vlocity_namespace%__DomainObjectAPIName__c": "json",
        "%vlocity_namespace%__DomainObjectCreationOrder__c": 1,
        "%vlocity_namespace%__DomainObjectFieldAPIName__c": "ViewAccount:viewAccountDetails1:ProtectCisDevision1",
        "%vlocity_namespace%__InterfaceFieldAPIName__c": "Account:Protect_CIS_Division__c",
        "%vlocity_namespace%__IsDisabled__c": false,
        "%vlocity_namespace%__IsRequiredForUpsert__c": false,
        "%vlocity_namespace%__MapId__c": "DRPrefillAccountCustom4591",
        "%vlocity_namespace%__UpsertKey__c": false,
        "Name": "DRPrefillAccount",
        "VlocityDataPackType": "SObject",
        "VlocityRecordSObjectType": "%vlocity_namespace%__DRMapItem__c"
    },
    {
        "%vlocity_namespace%__DomainObjectAPIName__c": "json",
        "%vlocity_namespace%__DomainObjectCreationOrder__c": 1,
        "%vlocity_namespace%__DomainObjectFieldAPIName__c": "ViewAccount:viewAccountDetails1:ProtectMailingPremise1",
        "%vlocity_namespace%__InterfaceFieldAPIName__c": "Account:Protect_Mailing_Premise__c",
        "%vlocity_namespace%__IsDisabled__c": false,
        "%vlocity_namespace%__IsRequiredForUpsert__c": false,
        "%vlocity_namespace%__MapId__c": "DRPrefillAccountCustom4022",
        "%vlocity_namespace%__UpsertKey__c": false,
        "Name": "DRPrefillAccount",
        "VlocityDataPackType": "SObject",
        "VlocityRecordSObjectType": "%vlocity_namespace%__DRMapItem__c"
    },
    {
        "%vlocity_namespace%__DomainObjectAPIName__c": "json",
        "%vlocity_namespace%__DomainObjectCreationOrder__c": 1,
        "%vlocity_namespace%__DomainObjectFieldAPIName__c": "ViewAccount:viewAccountDetails:AccessGroup",
        "%vlocity_namespace%__InterfaceFieldAPIName__c": "Account:Access_Group__c",
        "%vlocity_namespace%__IsDisabled__c": false,
        "%vlocity_namespace%__IsRequiredForUpsert__c": false,
        "%vlocity_namespace%__MapId__c": "DRPrefillAccountCustom3292",
        "%vlocity_namespace%__UpsertKey__c": false,
        "Name": "DRPrefillAccount",
        "VlocityDataPackType": "SObject",
        "VlocityRecordSObjectType": "%vlocity_namespace%__DRMapItem__c"
    },
    {
        "%vlocity_namespace%__DomainObjectAPIName__c": "json",
        "%vlocity_namespace%__DomainObjectCreationOrder__c": 1,
        "%vlocity_namespace%__DomainObjectFieldAPIName__c": "ViewAccount:viewAccountDetails:BillAfterDate",
        "%vlocity_namespace%__InterfaceFieldAPIName__c": "Account:Bill_After_Date__c",
        "%vlocity_namespace%__IsDisabled__c": false,
        "%vlocity_namespace%__IsRequiredForUpsert__c": false,
        "%vlocity_namespace%__MapId__c": "DRPrefillAccountCustom5927",
        "%vlocity_namespace%__UpsertKey__c": false,
        "Name": "DRPrefillAccount",
        "VlocityDataPackType": "SObject",
        "VlocityRecordSObjectType": "%vlocity_namespace%__DRMapItem__c"
    },
    {
        "%vlocity_namespace%__DomainObjectAPIName__c": "json",
        "%vlocity_namespace%__DomainObjectCreationOrder__c": 1,
        "%vlocity_namespace%__DomainObjectFieldAPIName__c": "ViewAccount:viewAccountDetails:BillPrintIntercept",
        "%vlocity_namespace%__InterfaceFieldAPIName__c": "Account:Bill_Print_Intercept__c",
        "%vlocity_namespace%__IsDisabled__c": false,
        "%vlocity_namespace%__IsRequiredForUpsert__c": false,
        "%vlocity_namespace%__MapId__c": "DRPrefillAccountCustom9757",
        "%vlocity_namespace%__UpsertKey__c": false,
        "Name": "DRPrefillAccount",
        "VlocityDataPackType": "SObject",
        "VlocityRecordSObjectType": "%vlocity_namespace%__DRMapItem__c"
    },
    {
        "%vlocity_namespace%__DomainObjectAPIName__c": "json",
        "%vlocity_namespace%__DomainObjectCreationOrder__c": 1,
        "%vlocity_namespace%__DomainObjectFieldAPIName__c": "ViewAccount:viewAccountDetails:Currency Code",
        "%vlocity_namespace%__InterfaceFieldAPIName__c": "Account:Currency_Code__c",
        "%vlocity_namespace%__IsDisabled__c": false,
        "%vlocity_namespace%__IsRequiredForUpsert__c": false,
        "%vlocity_namespace%__MapId__c": "DRPrefillAccountCustom6506",
        "%vlocity_namespace%__UpsertKey__c": false,
        "Name": "DRPrefillAccount",
        "VlocityDataPackType": "SObject",
        "VlocityRecordSObjectType": "%vlocity_namespace%__DRMapItem__c"
    },
    {
        "%vlocity_namespace%__DomainObjectAPIName__c": "json",
        "%vlocity_namespace%__DomainObjectCreationOrder__c": 1,
        "%vlocity_namespace%__DomainObjectFieldAPIName__c": "ViewAccount:viewAccountDetails:ProtectCisDevision",
        "%vlocity_namespace%__InterfaceFieldAPIName__c": "Account:Protect_CIS_Division__c",
        "%vlocity_namespace%__IsDisabled__c": false,
        "%vlocity_namespace%__IsRequiredForUpsert__c": false,
        "%vlocity_namespace%__MapId__c": "DRPrefillAccountCustom5950",
        "%vlocity_namespace%__UpsertKey__c": false,
        "Name": "DRPrefillAccount",
        "VlocityDataPackType": "SObject",
        "VlocityRecordSObjectType": "%vlocity_namespace%__DRMapItem__c"
    },
    {
        "%vlocity_namespace%__DomainObjectAPIName__c": "json",
        "%vlocity_namespace%__DomainObjectCreationOrder__c": 1,
        "%vlocity_namespace%__DomainObjectFieldAPIName__c": "ViewAccount:viewAccountDetails:ProtectMailingPremise",
        "%vlocity_namespace%__InterfaceFieldAPIName__c": "Account:Protect_Mailing_Premise__c",
        "%vlocity_namespace%__IsDisabled__c": false,
        "%vlocity_namespace%__IsRequiredForUpsert__c": false,
        "%vlocity_namespace%__MapId__c": "DRPrefillAccountCustom5309",
        "%vlocity_namespace%__UpsertKey__c": false,
        "Name": "DRPrefillAccount",
        "VlocityDataPackType": "SObject",
        "VlocityRecordSObjectType": "%vlocity_namespace%__DRMapItem__c"
    }
]