{
    "ACR": [
        {
            "ContactID": "003m000000uSfpyAAC"
        },
        {
            "ContactID": "003m000000ylpRtAAI"
        }
    ],
    "ContextId": "001m000000crJx8",
    "PersonInformation": {
        "MailingDate": null,
        "Text7": null,
        "TypeAheadPersonId-Block": null,
        "accountId": "001m000000crJx8AAE Global Media Non-Residential",
        "addMailingAddressBlock": {
            "Street/PO Box": null,
            "addressLine2": null,
            "city": null,
            "country": null,
            "county": null,
            "houseType": null,
            "stateCode": null,
            "zipCode": null
        },
        "literatureHistory": null,
        "literatureSelectionBlock": {
            "literatureCategory": null,
            "literatureType": null,
            "quantity": null
        },
        "mailingAddress": null,
        "useMailingAddress": false
    },
    "id": "a2Fm0000000KvhHEAS",
    "layout": "lightning",
    "timeStamp": "2018-06-01T04:37:48.602Z",
    "userCurrencyCode": "USD",
    "userId": "005m0000002yCkAAAU",
    "userName": "manisha.naik@pge.com.cc2020.dev",
    "userProfile": "System Administrator",
    "userTimeZone": -420,
    "vlcPersistentComponent": {
    },
    "vlcTimeTracking": {
        "DataRaptorPrefillAccount": 2413,
        "OmniScriptSessionToken": "d8b9bca6-48c8-40da-9718-34e70d61bb5d",
        "accountScriptConstant": 56
    }
}